"CUSTID","CUSTOMERNAME","ADDRESS","CITY","POSTALCODE"
4,"Mickey","Dadar","Mumbai",400004
2,"Ron","GrantRd","Mumbai",400002
6,"xyz","Vileparle","Mumbai",400006
5,"Minnie","Bandra","Mumbai",400005
1,"Mick","CharniRd","Mumbai",400001
3,"Max","Marine","Mumbai",400003